Bayesian Statistics
…
for \(n=10\): \(150.7 \pm 21\)

for \(n=100\): \(150.1 \pm 20.1\)

LAB-1

Assignment: Repeat the lab session using the dataset ShipAccidents in the AER package.

The ShipAccidents dataset from the AER package contains the following variables:

data(ShipAccidents)
data <- as_tibble(ShipAccidents)
data

## # A tibble: 40 x 5
##    type  construction operation service incidents
##    <fct> <fct>        <fct>       <dbl>     <dbl>
##  1 A     1960-64      1960-74       127         0
##  2 A     1960-64      1975-79        63         0
##  3 A     1965-69      1960-74      1095         3
##  4 A     1965-69      1975-79      1095         4
##  5 A     1970-74      1960-74      1512         6
##  6 A     1970-74      1975-79      3353        18
##  7 A     1975-79      1960-74         0         0
##  8 A     1975-79      1975-79      2244        11
##  9 B     1960-64      1960-74     44882        39
## 10 B     1960-64      1975-79     17176        29
## # ... with 30 more rows
…
