Bayesian Statistics
…
data_tbb <- brdata %>%
  as_tibble() %>% 
  filter(!is.na(black), !is.na(female), !is.na(educ1),
         !is.na(age), !is.na(income), !is.na(state)) %>% 
  filter(year %in% 1952:2000) 

polls_tbb <- data_tbb %>% 
  filter(year == 1992, presvote < 3) %>% 
  mutate(vote = presvote - 1) %>% 
  select(income, vote)

polls_tbb

## # A tibble: 1,179 x 2
##    income  vote
##     <dbl> <dbl>
##  1      4     1
##  2      2     1
##  3      1     0
##  4      2     1
##  5      3     0
##  6      4     0
##  7      2     1
##  8      4     1
##  9      1     0
## 10      4     1
## # ... with 1,169 more rows
…
